<svg width="32" height="32" xmlns="http://www.w3.org/2000/svg">

 <g>
  <title>background</title>
  <rect fill="none" id="canvas_background" height="402" width="582" y="-1" x="-1"/>
 </g>
 <g>
  <title>Layer 1</title>
  <polyline id="svg_2" stroke-width="2" stroke-miterlimit="10" stroke-linejoin="round" stroke-linecap="round" stroke="#FFFFFF" points="   649,137.999 675,137.999 675,155.999 661,155.999  " fill="none"/>
  <polyline id="svg_3" stroke-width="2" stroke-miterlimit="10" stroke-linejoin="round" stroke-linecap="round" stroke="#FFFFFF" points="   653,155.999 649,155.999 649,141.999  " fill="none"/>
  <polyline id="svg_4" stroke-width="2" stroke-miterlimit="10" stroke-linejoin="round" stroke-linecap="round" stroke="#FFFFFF" points="   661,156 653,162 653,156  " fill="none"/>
  <path fill="#f94f4f" id="svg_7" d="m16.061633,27c-0.23,0 -0.461,-0.079 -0.648,-0.238c-0.242,-0.206 -5.942,-5.1 -8.32,-10.438c-0.225,-0.504 0.002,-1.096 0.507,-1.32c0.503,-0.224 1.095,0.002 1.32,0.507c1.739,3.905 5.577,7.699 7.124,9.13c2.73,-2.65 8.017,-8.572 8.017,-12.411c0,-4.538 -3.589,-8.23 -8,-8.23s-8,3.692 -8,8.23c0,0.552 -0.448,1 -1,1s-1,-0.448 -1,-1c0,-5.641 4.486,-10.23 10,-10.23c5.514,0 10,4.589 10,10.23c0,5.912 -8.944,14.159 -9.325,14.508c-0.191,0.174 -0.433,0.262 -0.675,0.262z"/>
  <path fill="#f94f4f" id="svg_9" d="m16,16c-2.206,0 -4,-1.794 -4,-4s1.794,-4 4,-4c2.206,0 4,1.794 4,4s-1.794,4 -4,4zm0,-6c-1.103,0 -2,0.897 -2,2s0.897,2 2,2c1.103,0 2,-0.897 2,-2s-0.897,-2 -2,-2z"/>
  <path fill="#f94f4f" id="svg_11" d="m29,30l-26,0c-0.356,0 -0.686,-0.189 -0.865,-0.498c-0.179,-0.309 -0.18,-0.688 -0.003,-0.998l4,-7c0.274,-0.479 0.885,-0.647 1.364,-0.372c0.479,0.274 0.646,0.885 0.372,1.364l-3.145,5.504l22.553,0l-3.145,-5.504c-0.274,-0.479 -0.107,-1.09 0.372,-1.364c0.479,-0.276 1.09,-0.107 1.364,0.372l4,7c0.177,0.31 0.176,0.689 -0.003,0.998c-0.178,0.309 -0.508,0.498 -0.864,0.498z"/>
 </g>
</svg>